Preprocessing, tuning, and modeling with Tidymodels
…
  # It is necessary to prep the recipe before using it on a new dataset
  prep(retain = TRUE)

Now that the recipe is defined, we apply it to our training and testing data. There are two functions that accomplish this. Use juice to extract the training data that we used to train the steps in the recipe. The bake function, on the other hand, we use to process a new datasettypically the test data. Taking a quick look at the training data frame, looks like recipe accomplished the preprocessing we desired.

set.seed(1491)

train_dat <- juice(prep_rec)
test_dat <- bake(prep_rec, test) %>% select(-sale_price)

print(train_dat)

## # A tibble: 1,458 x 130
##    ms_sub_class lot_frontage lot_area overall_qual overall_cond year_built
##           <dbl>        <dbl>    <dbl>        <dbl>        <dbl>      <dbl>
##  1        0.496      -0.190   -0.140        0.658        -0.517     1.05  
##  2       -1.16        0.477    0.109       -0.0683        2.18      0.158 
##  3        0.496      -0.0519   0.419        0.658        -0.517     0.986 
##  4        0.699      -0.428    0.0984       0.658        -0.517    -1.86  
##  5        0.496       0.645    0.888        1.38         -0.517     0.953 
##  6        0.246       0.686    0.867       -0.795        -0.517     0.721 
##  7       -1.16        0.261    0.205        1.38         -0.517     1.09  
##  8        0.496       0.394    0.262        0.658         0.381     0.0590
##  9        0.246      -0.878   -0.763        0.658        -0.517    -1.33  
## 10        1.87       -0.930   -0.392       -0.795         0.381    -1.07  
## #  with 1,448 more rows, and 124 more variables: year_remod_add <dbl>,
## #   mas_vnr_area <dbl>, exter_qual <dbl>, exter_cond <dbl>, bsmt_qual <dbl>,
## #   bsmt_fin_sf1 <dbl>, bsmt_unf_sf <dbl>, total_bsmt_sf <dbl>,
## #   heating_qc <dbl>, x1st_flr_sf <dbl>, x2nd_flr_sf <dbl>, gr_liv_area <dbl>,
## #   bsmt_full_bath <dbl>, bsmt_half_bath <dbl>, full_bath <dbl>,
## #   half_bath <dbl>, bedroom_abv_gr <dbl>, kitchen_qual <dbl>,
## #   tot_rms_abv_grd <dbl>, fireplaces <dbl>, garage_yr_blt <dbl>,
## #   garage_cars <dbl>, garage_area <dbl>, garage_qual <dbl>, garage_cond <dbl>,
## #   wood_deck_sf <dbl>, open_porch_sf <dbl>, mo_sold <dbl>, yr_sold <dbl>,
…
print(test_dat)

## # A tibble: 1,459 x 129
##    ms_sub_class lot_frontage lot_area overall_qual overall_cond year_built
##           <dbl>        <dbl>    <dbl>        <dbl>        <dbl>      <dbl>
##  1       -1.16        0.477     0.483      -0.795         0.381    -0.338 
##  2       -1.16        0.519     0.889      -0.0683        0.381    -0.438 
##  3        0.496       0.217     0.827      -0.795        -0.517     0.854 
##  4        0.496       0.391     0.184      -0.0683        0.381     0.887 
##  5        1.36       -1.31     -1.15        1.38         -0.517     0.688 
##  6        0.496       0.261     0.188      -0.0683       -0.517     0.721 
##  7       -1.16        0.156    -0.251      -0.0683        1.28      0.688 
##  8        0.496      -0.284    -0.151      -0.0683       -0.517     0.887 
##  9       -1.16        0.686     0.223       0.658        -0.517     0.622 
## 10       -1.16        0.0389   -0.151      -1.52         -0.517    -0.0403
## #  with 1,449 more rows, and 123 more variables: year_remod_add <dbl>,
## #   mas_vnr_area <dbl>, exter_qual <dbl>, exter_cond <dbl>, bsmt_qual <dbl>,
## #   bsmt_fin_sf1 <dbl>, bsmt_unf_sf <dbl>, total_bsmt_sf <dbl>,
## #   heating_qc <dbl>, x1st_flr_sf <dbl>, x2nd_flr_sf <dbl>, gr_liv_area <dbl>,
## #   bsmt_full_bath <dbl>, bsmt_half_bath <dbl>, full_bath <dbl>,
## #   half_bath <dbl>, bedroom_abv_gr <dbl>, kitchen_qual <dbl>,
## #   tot_rms_abv_grd <dbl>, fireplaces <dbl>, garage_yr_blt <dbl>,
## #   garage_cars <dbl>, garage_area <dbl>, garage_qual <dbl>, garage_cond <dbl>,
## #   wood_deck_sf <dbl>, open_porch_sf <dbl>, mo_sold <dbl>, yr_sold <dbl>,
…
## #  5-fold cross-validation 
## # A tibble: 5 x 4
##   splits            id    .metrics          .notes          
## * <list>            <chr> <list>            <list>          
## 1 <split [875/219]> Fold1 <tibble [50  4]> <tibble [0  1]>
## 2 <split [875/219]> Fold2 <tibble [50  4]> <tibble [0  1]>
## 3 <split [875/219]> Fold3 <tibble [50  4]> <tibble [0  1]>
## 4 <split [875/219]> Fold4 <tibble [50  4]> <tibble [0  1]>
## 5 <split [876/218]> Fold5 <tibble [50  4]> <tibble [0  1]>

print(lasso_cv$.metrics)

## [[1]]
## # A tibble: 50 x 4
##     penalty .metric .estimator .estimate
##       <dbl> <chr>   <chr>          <dbl>
##  1 1.00e-10 rmse    standard       0.104
##  2 1.60e-10 rmse    standard       0.104
##  3 2.56e-10 rmse    standard       0.104
##  4 4.09e-10 rmse    standard       0.104
##  5 6.55e-10 rmse    standard       0.104
##  6 1.05e- 9 rmse    standard       0.104
##  7 1.68e- 9 rmse    standard       0.104
##  8 2.68e- 9 rmse    standard       0.104
##  9 4.29e- 9 rmse    standard       0.104
## 10 6.87e- 9 rmse    standard       0.104
## #  with 40 more rows
## 
## [[2]]
## # A tibble: 50 x 4
##     penalty .metric .estimator .estimate
##       <dbl> <chr>   <chr>          <dbl>
##  1 1.00e-10 rmse    standard       0.143
##  2 1.60e-10 rmse    standard       0.143
##  3 2.56e-10 rmse    standard       0.143
##  4 4.09e-10 rmse    standard       0.143
##  5 6.55e-10 rmse    standard       0.143
##  6 1.05e- 9 rmse    standard       0.143
##  7 1.68e- 9 rmse    standard       0.143
##  8 2.68e- 9 rmse    standard       0.143
##  9 4.29e- 9 rmse    standard       0.143
## 10 6.87e- 9 rmse    standard       0.143
## #  with 40 more rows
## 
## [[3]]
## # A tibble: 50 x 4
##     penalty .metric .estimator .estimate
##       <dbl> <chr>   <chr>          <dbl>
##  1 1.00e-10 rmse    standard       0.116
##  2 1.60e-10 rmse    standard       0.116
##  3 2.56e-10 rmse    standard       0.116
##  4 4.09e-10 rmse    standard       0.116
##  5 6.55e-10 rmse    standard       0.116
##  6 1.05e- 9 rmse    standard       0.116
##  7 1.68e- 9 rmse    standard       0.116
##  8 2.68e- 9 rmse    standard       0.116
##  9 4.29e- 9 rmse    standard       0.116
## 10 6.87e- 9 rmse    standard       0.116
## #  with 40 more rows
## 
## [[4]]
## # A tibble: 50 x 4
##     penalty .metric .estimator .estimate
##       <dbl> <chr>   <chr>          <dbl>
##  1 1.00e-10 rmse    standard       0.132
##  2 1.60e-10 rmse    standard       0.132
##  3 2.56e-10 rmse    standard       0.132
##  4 4.09e-10 rmse    standard       0.132
##  5 6.55e-10 rmse    standard       0.132
##  6 1.05e- 9 rmse    standard       0.132
##  7 1.68e- 9 rmse    standard       0.132
##  8 2.68e- 9 rmse    standard       0.132
##  9 4.29e- 9 rmse    standard       0.132
## 10 6.87e- 9 rmse    standard       0.132
## #  with 40 more rows
## 
## [[5]]
## # A tibble: 50 x 4
##     penalty .metric .estimator .estimate
##       <dbl> <chr>   <chr>          <dbl>
##  1 1.00e-10 rmse    standard       0.108
##  2 1.60e-10 rmse    standard       0.108
##  3 2.56e-10 rmse    standard       0.108
##  4 4.09e-10 rmse    standard       0.108
##  5 6.55e-10 rmse    standard       0.108
##  6 1.05e- 9 rmse    standard       0.108
##  7 1.68e- 9 rmse    standard       0.108
##  8 2.68e- 9 rmse    standard       0.108
##  9 4.29e- 9 rmse    standard       0.108
## 10 6.87e- 9 rmse    standard       0.108
## #  with 40 more rows
…
lasso_fit <-
    best_lasso_model %>%
    fit(sale_price ~ ., training(train_split))

Time to predict. parsnip has its own predict() methods that apply a tidy philosophy. So predict() outputs a Nx1 data frame rather than a vector of predicted values. But otherwise, the interface is familiar. Pass the fitted model and a new dataset to get prediction. Here, we use testing() to extract the testing dataset from train_split.

lasso_predictions <- predict(lasso_fit, testing(train_split))

print(lasso_predictions)

## # A tibble: 364 x 1
##    .pred
##    <dbl>
##  1  12.2
##  2  12.0
##  3  12.5
##  4  11.8
##  5  12.3
##  6  11.6
##  7  12.6
##  8  11.8
##  9  12.6
## 10  11.8
## #  with 354 more rows
…
